6. Análisis de discursos | ApRendiendo R
…
1. Prendo librerías

library(polAr) #para obtener los discursos tokenizados
library(tidyverse)
library(ggplot2)
library(patchwork) #para unir los dos gráficos de barras
library(wordcloud2) #para crear las nubes de palabras
library(webshot) #para que muestre nubes de palabras (spoiler: no funcionó)

2. Creo una nube de palabras con los términos más utilizados por Urquiza.

show_available_speech()

## # A tibble: 116 x 2
##    year  president            
##    <chr> <chr>                
##  1 1854  justo_jose_de_urquiza
##  2 1855  justo_jose_de_urquiza
##  3 1856  justo_jose_de_urquiza
##  4 1857  justo_jose_de_urquiza
##  5 1858  justo_jose_de_urquiza
##  6 1859  justo_jose_de_urquiza
##  7 1860  santiago_derqui      
##  8 1861  santiago_derqui      
##  9 1862  bartolome_mitre      
## 10 1863  bartolome_mitre      
## # … with 106 more rows

urquiza <- get_speech(year = 1854)

frecuencia <- urquiza %>% 
  group_by(word) %>% 
  count() %>% 
  arrange(desc(n)) %>% 
  print()

## # A tibble: 4,858 x 2
## # Groups:   word [4,858]
##    word              n
##    <chr>         <int>
##  1 gobierno        112
##  2 buenos           58
##  3 confederacion    58
##  4 nacional         54
##  5 provincias       53
##  6 aires            50
##  7 constitucion     45
##  8 pueblos          44
##  9 provincia        42
## 10 república        42
## # … with 4,848 more rows
…
alberto <- get_speech(year = 2020)

frecuencia2 <- alberto %>% 
  group_by(word) %>% 
  count() %>% 
  arrange(desc(n)) %>% 
  print()

## # A tibble: 2,427 x 2
## # Groups:   word [2,427]
##    word           n
##    <chr>      <int>
##  1 social        27
##  2 nacional      26
##  3 desarrollo    25
##  4 ley           24
##  5 federal       21
##  6 gobierno      18
##  7 queremos      18
##  8 deuda         17
##  9 poder         17
## 10 justicia      16
## # … with 2,417 more rows
…
