2. Ordenar direcciones | ApRendiendo R
…
    Publish date: 10-01-2021

1. Prendo librerías

library(googlesheets4) #para importar datos
gs4_deauth() #para que google sheets no sea interactiva
library(tidyverse) #para transformar y ordenar los datos

2. Importo datos

muestra2 <- read_sheet("https://docs.google.com/spreadsheets/d/1tj3bxvmUpv9jzrC0_RIcx5Z5sEUL58amCK5tySFXGhQ/edit?usp=sharing") %>% 
  print() #importo datos

## # A tibble: 40 x 1
##    dire                                                                         
##    <chr>                                                                        
##  1 Zuviría 1470, San Miguel , Buenos Aires                                      
##  2 Moreno 359, San Carlos de Bariloche, Río Negro                               
##  3 III 271, Villa La Arcadia, Buenos Aires                                      
##  4 González Chávez 485, Balcarce, Buenos Aires                                  
##  5 Jacaranda 55, Cariló, Buenos Aires                                           
##  6 Leopoldo Lugones 1945, Ushuaia, Tierra del Fuego, Antártida e Islas del Atlá…
##  7 Tucumán 2728, Mar del Plata, Buenos Aires                                    
##  8 Lisandro De La Torre 411, La Falda, Córdoba                                  
##  9 Los Alamos Sin datos, Orense, Buenos Aires                                   
## 10 Sierra Paileman 335, Las Grutas, Río Negro                                   
## # … with 30 more rows

3. Separo columnas

muestraseparada <- muestra2 %>% 
  as_tibble() %>% 
  separate(col = dire,
           into = c("calle", "depto", "prov"),
           sep = ",") %>% 
  print() #creo una base nueva, con los columnas ya separadas

## # A tibble: 40 x 3
##    calle                    depto                      prov               
##    <chr>                    <chr>                      <chr>              
##  1 Zuviría 1470             " San Miguel "             " Buenos Aires"    
##  2 Moreno 359               " San Carlos de Bariloche" " Río Negro"       
##  3 III 271                  " Villa La Arcadia"        " Buenos Aires"    
##  4 González Chávez 485      " Balcarce"                " Buenos Aires"    
##  5 Jacaranda 55             " Cariló"                  " Buenos Aires"    
##  6 Leopoldo Lugones 1945    " Ushuaia"                 " Tierra del Fuego"
##  7 Tucumán 2728             " Mar del Plata"           " Buenos Aires"    
##  8 Lisandro De La Torre 411 " La Falda"                " Córdoba"         
##  9 Los Alamos Sin datos     " Orense"                  " Buenos Aires"    
## 10 Sierra Paileman 335      " Las Grutas"              " Río Negro"       
## # … with 30 more rows

4. Limpio direcciones

muestralimpia <- muestraseparada %>% 
  mutate(across(.cols = c(depto,prov),
                .fns = str_trim), #emprolijo a través de sacar los espacios
         numero = str_remove_all(calle, pattern = "\\D+"),
         calle = str_remove_all(calle, pattern = "\\d+")) %>% 
  print() #elimino números de "calle" y creo una nueva variable con los números

## # A tibble: 40 x 4
##    calle                   depto                   prov             numero
##    <chr>                   <chr>                   <chr>            <chr> 
##  1 "Zuviría "              San Miguel              Buenos Aires     "1470"
##  2 "Moreno "               San Carlos de Bariloche Río Negro        "359" 
##  3 "III "                  Villa La Arcadia        Buenos Aires     "271" 
##  4 "González Chávez "      Balcarce                Buenos Aires     "485" 
##  5 "Jacaranda "            Cariló                  Buenos Aires     "55"  
##  6 "Leopoldo Lugones "     Ushuaia                 Tierra del Fuego "1945"
##  7 "Tucumán "              Mar del Plata           Buenos Aires     "2728"
##  8 "Lisandro De La Torre " La Falda                Córdoba          "411" 
##  9 "Los Alamos Sin datos"  Orense                  Buenos Aires     ""    
## 10 "Sierra Paileman "      Las Grutas              Río Negro        "335" 
## # … with 30 more rows
…
