…
library(polAr)
library(dplyr)
library(tm)
library(topicmodels)
library(tidyverse)
library(ggplot2)
library(forcats)
library(patchwork)
library(wordcloud2)

show_available_speech()

## # A tibble: 116 x 2
##    year  president            
##    <chr> <chr>                
##  1 1854  justo_jose_de_urquiza
##  2 1855  justo_jose_de_urquiza
##  3 1856  justo_jose_de_urquiza
##  4 1857  justo_jose_de_urquiza
##  5 1858  justo_jose_de_urquiza
##  6 1859  justo_jose_de_urquiza
##  7 1860  santiago_derqui      
##  8 1861  santiago_derqui      
##  9 1862  bartolome_mitre      
## 10 1863  bartolome_mitre      
## # … with 106 more rows
…
