…
library(readr)
library(tidyverse)
library(dplyr)

libertad <- readr::read_csv("https://raw.githubusercontent.com/cienciadedatos/datos-de-miercoles/master/datos/2019/2019-08-14/libertad.csv")
print(libertad)

## # A tibble: 1,458 x 10
##     anio codigo_iso pais  region libertad_humana… libertad_humana…
##    <dbl> <chr>      <chr> <chr>             <dbl>            <dbl>
##  1  2016 ALB        Alba… Europ…             7.57               48
##  2  2016 DZA        Alge… Orien…             5.14              155
##  3  2016 AGO        Ango… Áfric…             5.64              142
##  4  2016 ARG        Arge… Latin…             6.47              107
##  5  2016 ARM        Arme… Cáuca…             7.24               57
##  6  2016 AUS        Aust… Ocean…             8.58                4
##  7  2016 AUT        Aust… Europ…             8.41               16
##  8  2016 AZE        Azer… Cáuca…             6.08              130
##  9  2016 BHS        Baha… Latin…             7.4                50
## 10  2016 BHR        Bahr… Orien…             6.85               75
## # … with 1,448 more rows, and 4 more variables:
## #   libertad_personal_puntaje <dbl>, libertad_personal_ranking <dbl>,
## #   libertad_economica_puntaje <dbl>, libertad_economica_ranking <dbl>
…
