…
Después cree una nueva base de datos (elecciones2003) a partir de los datos de las elecciones presidenciales de 2003, y una nueva (caba2003) en la que:

apliqué un filtro para trabajar con los resultados de la Ciudad de Buenos Aires

elegí las variables con las que me interesaba trabajar

calculé los porcentajes de votos obtenidos por cada lista

los ordené en orden descendente

elecciones2003 <- get_election_data("arg", "presi", "gral", 2003) %>% #obtengo datos desde polAR y creo base nuevo
  get_names() %>% # obtengo los nombres de las listas
  print()

## # A tibble: 480 x 9
## # Groups:   codprov [24]
##    category round  year codprov name_prov electores listas votos nombre_lista   
##    <chr>    <chr> <dbl> <chr>   <chr>         <dbl> <chr>  <dbl> <chr>          
##  1 presi    gral   2003 01      CABA        2590435 0001    2985 Mov. de Integr…
##  2 presi    gral   2003 01      CABA        2590435 0003   16216 Unión Cívica R…
##  3 presi    gral   2003 01      CABA        2590435 0005    6324 Partido Demócr…
##  4 presi    gral   2003 01      CABA        2590435 0014   14828 Partido Obrero 
##  5 presi    gral   2003 01      CABA        2590435 0022   16371 Partido Humani…
##  6 presi    gral   2003 01      CABA        2590435 0030    7302 Partido Social…
##  7 presi    gral   2003 01      CABA        2590435 0037    1843 Mov. por la Di…
##  8 presi    gral   2003 01      CABA        2590435 0050   50703 Partido Social…
##  9 presi    gral   2003 01      CABA        2590435 0051    4264 Partido Popula…
## 10 presi    gral   2003 01      CABA        2590435 0053   15948 Conf. Para que…
## # … with 470 more rows
…
