3. Libertad humana y libertad económica | ApRendiendo R
…
      Tags: 

      leer, ordenar, transformar, visualizar

En este ejercicio, voy a explorar gráficamente algunos indicadores sobre distintas medidas para la libertad en distintos países. En concreto, voy a observar que existe una relación clara entre los índices de libertad humana y los de libertad económica.

Importo datos

library(readr) #prendo librería para leer datos
library(tidyverse) #prendo librería para ordenar y transformar datos

libertad <- readr::read_csv("https://raw.githubusercontent.com/cienciadedatos/datos-de-miercoles/master/datos/2019/2019-08-14/libertad.csv") #importo datos
print(libertad)

## # A tibble: 1,458 x 10
##     anio codigo_iso pais  region libertad_humana… libertad_humana…
##    <dbl> <chr>      <chr> <chr>             <dbl>            <dbl>
##  1  2016 ALB        Alba… Europ…             7.57               48
##  2  2016 DZA        Alge… Orien…             5.14              155
##  3  2016 AGO        Ango… Áfric…             5.64              142
##  4  2016 ARG        Arge… Latin…             6.47              107
##  5  2016 ARM        Arme… Cáuca…             7.24               57
##  6  2016 AUS        Aust… Ocean…             8.58                4
##  7  2016 AUT        Aust… Europ…             8.41               16
##  8  2016 AZE        Azer… Cáuca…             6.08              130
##  9  2016 BHS        Baha… Latin…             7.4                50
## 10  2016 BHR        Bahr… Orien…             6.85               75
## # … with 1,448 more rows, and 4 more variables:
## #   libertad_personal_puntaje <dbl>, libertad_personal_ranking <dbl>,
## #   libertad_economica_puntaje <dbl>, libertad_economica_ranking <dbl>

libertad2 <- libertad %>% #creo una nueva base
  select(anio, region, pais, libertad_humana_puntaje, libertad_economica_puntaje) %>% #elijo las variables que me interesan
  group_by(pais, region) %>% #las agrupo por país y por región
  mutate(promediohumana = mean(libertad_humana_puntaje), promedioecon = mean(libertad_economica_puntaje)) %>% #calculo promedios para cada país
  drop_na() %>% #suelto los missing values
  print()

## # A tibble: 1,269 x 7
## # Groups:   pais, region [140]
##     anio region pais  libertad_humana… libertad_econom… promediohumana
##    <dbl> <chr>  <chr>            <dbl>            <dbl>          <dbl>
##  1  2016 Europ… Alba…             7.57             7.54           7.52
##  2  2016 Orien… Alge…             5.14             4.99           5.14
##  3  2016 Áfric… Ango…             5.64             5.17           5.50
##  4  2016 Latin… Arge…             6.47             4.84           6.68
##  5  2016 Cáuca… Arme…             7.24             7.57           7.41
##  6  2016 Ocean… Aust…             8.58             7.98           8.61
##  7  2016 Europ… Aust…             8.41             7.58           8.42
##  8  2016 Cáuca… Azer…             6.08             6.49           6.15
##  9  2016 Latin… Baha…             7.4              7.34           7.56
## 10  2016 Orien… Bahr…             6.85             7.56           6.80
## # … with 1,259 more rows, and 1 more variable: promedioecon <dbl>
…
